<svg width="48" height="45" viewBox="0 0 48 45" fill="none" xmlns="http://www.w3.org/2000/svg">
<path fill-rule="evenodd" clip-rule="evenodd" d="M39.6989 8.00768C41.8771 6.6153 44.3919 5.70316 47.094 5.42054V0C42.8325 0.337341 38.9052 1.8625 35.6434 4.24442C31.9448 1.5739 27.4018 0.000241709 22.4913 0.000241709C10.0697 0.000241709 0 10.07 0 22.4916C0 34.9132 10.0697 44.9829 22.4913 44.9829C34.913 44.9829 44.9827 34.9132 44.9827 22.4916C44.9827 16.9741 42.996 11.9207 39.6989 8.00768ZM22.4919 39.5855C31.9323 39.5855 39.5853 31.9325 39.5853 22.4921C39.5853 18.2757 38.0587 14.4159 35.528 11.4352C31.9902 14.5428 27.4686 16.5574 22.4909 16.9514V11.5313C25.8301 11.1821 28.8832 9.87152 31.3685 7.88133C28.7812 6.30605 25.7425 5.39868 22.4919 5.39868C13.0514 5.39868 5.39844 13.0517 5.39844 22.4921C5.39844 31.9325 13.0514 39.5855 22.4919 39.5855Z" fill="#FE5D48"/>
</svg>
